====================================================================================================
                              Port Ethernet Error
====================================================================================================
PORT  ERROR   ERROR   FRAMES  TOO     LINK    CARRIER CARRIER SQETEST IN
NUM   ALIGN   FCS     LONG    SHORT   FAILURE SENSE   ERRORS  ERRORS  DISCARD
----------------------------------------------------------------------------------------------------
1/1   0       0       0       0       0       0       0       0       711
1/2   0       0       0       0       1       0       0       0       14070563
1/3   0       0       0       0       0       0       0       0       1366
1/4   0       0       0       0       1       0       0       0       13645955
1/5   0       0       0       0       0       0       0       0       18
1/6   0       0       0       0       1       0       0       0       1
1/7   0       0       0       0       1       0       0       0       63
1/8   0       0       0       0       1       0       0       0       0
1/9   0       0       0       0       1       0       0       0       1267
1/10  0       0       0       0       0       0       0       0       65885
1/11  0       0       0       0       0       0       0       0       296765
1/12  0       0       0       0       0       0       0       0       78037
1/13  0       0       0       0       0       0       0       0       367292
1/14  0       0       0       0       0       0       0       0       267574
1/15  0       0       0       0       0       0       0       0       252191
1/16  0       0       0       0       0       0       0       0       199328
1/17  0       0       0       0       0       0       0       0       25154
1/18  0       0       0       0       0       0       0       0       1294518
1/19  0       0       0       0       0       0       0       0       20
1/20  0       0       0       0       0       0       0       0       2369
1/21  0       0       0       0       0       0       0       0       126838
1/22  0       0       0       0       0       0       0       0       240
1/23  0       0       0       0       0       0       0       0       0
1/24  0       0       0       0       0       0       0       0       186117
1/25  0       0       0       0       0       0       0       0       0
1/26  0       0       0       0       0       0       0       0       0
1/27  0       0       0       0       0       0       0       0       13
1/28  0       0       0       0       0       0       0       0       2012
1/29  0       0       0       0       0       0       0       0       15
1/30  0       0       0       0       0       0       0       0       0
1/31  0       0       0       0       0       0       0       0       0
1/32  0       0       0       0       0       0       0       0       0
1/33  0       0       0       0       0       0       0       0       0
1/34  0       0       0       0       0       0       0       0       0
1/35  0       0       0       0       0       0       0       0       0
1/36  0       0       0       0       0       0       0       0       0
1/37  0       0       0       0       0       0       0       0       0
1/38  0       0       0       0       0       0       0       0       144
1/39  0       0       0       0       0       0       0       0       240
1/40  0       0       0       0       0       0       0       0       0
1/41  0       0       0       0       0       0       0       0       35652
1/42  0       0       0       0       7       0       0       0       2148
2/1   0       0       0       0       0       0       0       0       4913
2/2   0       0       0       0       0       0       0       0       7535
2/3   0       0       0       0       1       0       0       0       2
2/4   0       0       0       0       0       0       0       0       0
2/5   0       0       0       0       0       0       0       0       223
2/6   0       0       0       0       1       0       0       0       1
2/7   0       0       0       0       1       0       0       0       66
2/8   0       0       0       0       1       0       0       0       1
2/9   0       0       0       0       1       0       0       0       0
2/10  0       0       0       0       0       0       0       0       518945
2/11  0       0       0       0       0       0       0       0       462238
2/12  0       0       0       0       0       0       0       0       43334
2/13  0       0       0       0       0       0       0       0       4874089
2/14  0       0       0       0       0       0       0       0       158899
2/15  0       0       0       0       0       0       0       0       189844
2/16  0       0       0       0       0       0       0       0       3178
2/17  0       0       0       0       0       0       0       0       2690
2/18  0       0       0       0       0       0       0       0       381687
2/19  0       0       0       0       0       0       0       0       91
2/20  0       0       0       0       0       0       0       0       1278
2/21  0       0       0       0       0       0       0       0       35072
2/22  0       0       0       0       0       0       0       0       0
2/23  0       0       0       0       0       0       0       0       0
2/24  0       0       0       0       0       0       0       0       0
2/25  0       0       0       0       0       0       0       0       0
2/26  0       0       0       0       0       0       0       0       0
2/27  0       0       0       0       0       0       0       0       9
2/28  0       0       0       0       0       0       0       0       7851
2/29  0       0       0       0       0       0       0       0       3792
2/30  0       0       0       0       0       0       0       0       0
2/31  0       0       0       0       0       0       0       0       673
2/32  0       0       0       0       0       0       0       0       0
2/33  0       0       0       0       0       0       0       0       240
2/34  0       0       0       0       0       0       0       0       0
2/35  0       0       0       0       0       0       0       0       0
2/36  0       0       0       0       0       0       0       0       0
2/37  0       0       0       0       0       0       0       0       0
2/38  0       0       0       0       0       0       0       0       0
2/39  0       0       0       0       0       0       0       0       98821
2/40  0       0       0       0       0       0       0       0       0
2/41  0       0       0       0       0       0       0       0       0
2/42  0       0       0       0       0       0       0       0       0
