
Please widen the terminal for optimal viewing of data.

==================================================================================================================
                                               Port Stats Interface
==================================================================================================================
PORT     IN                  OUT                  IN                   OUT
NUM    OCTETS               OCTETS               PACKET               PACKET
------------------------------------------------------------------------------------------------------------------
1/1    101625322257007      3597378061549        82923220577          5709003269
1/2    55682052653799       56898756848238       96723105586          106669826621
1/3    19718239821023       26363499030212       23116859867          28300524251
1/4    45214813347550       53165654042489       68116673350          90320046892
1/5    3837809812           35886670123          18886918             82705024
1/6    526031781            99630716668          3078142              162218346
1/7    1254861743963606     128806689626393      840434319450         178220260671
1/8    601333931            1055438495048        3354259              935699172
1/9    8102893300597        1141813184600405     60136513551          742951316300
1/10   3406779179849        2144007170766        4843895347           3014058247
1/11   5739110269028        4071985057107        5708261198           5677706724
1/12   8522599976158        6878037853946        15401635511          14359422437
1/13   14156965371521       11479034063917       16873082574          15686075388
1/14   10538964098277       12320442001812       13757309161          15554333677
1/15   7265938318928        4600974759235        8526897593           7922337096
1/16   781526830194         1270576931707        1390874490           2012904765
1/17   8654135491           5595023859           25349491             41257026
1/18   23891264940173       1251063804658        18230732809          6445615726
1/19   4925683873156        2610382090729        4426949255           3528290891
1/20   8059422567148        4025019710893        15134402214          12843102301
1/21   7434451363038        10406296762333       8700471901           14666320359
1/22   4436000              2057066182           27863                24783517
1/23   0                    0                    0                    0
1/24   17861655691951       27039189353496       24761003278          30950919602
1/25   0                    0                    0                    0
1/26   0                    0                    0                    0
1/27   115962584116         150715283181         121065664            189933944
1/28   2569603532236        6384287747679        3398934090           6118637511
1/29   66789257243          112515707711         59800128             114274082
1/30   0                    0                    0                    0
1/31   0                    0                    0                    0
1/32   0                    0                    0                    0
1/33   0                    0                    0                    0
1/34   0                    0                    0                    0
1/35   0                    0                    0                    0
1/36   0                    0                    0                    0
1/37   0                    0                    0                    0
1/38   12575319606526       5203192145395        14984091622          12502784769
1/39   4435840              1417184382           27862                15543953
1/40   4419680              23494542705          27623                71446440
1/41   51691733937098       410348534017241      157707198089         326175075822
1/42   72249025261          138142733820         164288150            166349621
2/1    73317516887988       8280020513225        64699641247          42163542172
2/2    3358298263160        3751209139236        3713415696           3268307378
2/3    78118668801820       76401298137852       65992659594          56863371902
2/4    0                    0                    0                    0
2/5    172431595684         2800625418351        640602676            2218271831
2/6    526779894            100139727980         3081801              162821860
2/7    1257773860524        1190200955691        784419717            2112025403
2/8    614866985            1056003898177        3436735              935986080
2/9    46939768662          43298618339          91368077             97846133
2/10   1132249741537        1154800497506        1697316113           2124760813
2/11   24365373748205       12645400079600       26648742501          20955950930
2/12   3516600958321        3886434185845        6656078153           8327514961
2/13   21519341382489       18208287659198       28765129926          29752479939
2/14   19752001011247       14974909329073       25130354252          20915918120
2/15   17927651152375       14384183498935       18606591701          17682079709
2/16   856149894429         145217791363         1070664314           663548706
2/17   10670243925          10460080286          45148589             69048136
2/18   3708256217431        1901675854328        4235138828           3098803304
2/19   6256650962084        3326005144145        8400973434           7497062597
2/20   8841405492824        4141950827781        16650033217          12986404950
2/21   4409589920417        6699788064025        5542338786           8120147224
2/22   0                    0                    0                    0
2/23   0                    0                    0                    0
2/24   0                    0                    0                    0
2/25   0                    0                    0                    0
2/26   0                    0                    0                    0
2/27   292450528162         289669686289         284542295            333200780
2/28   6882653152605        2795372717205        7168079592           5603029573
2/29   1363821887375        1169974483398        1309827825           1457625854
2/30   0                    0                    0                    0
2/31   48786088460          21657832520          37513713             37426854
2/32   0                    0                    0                    0
2/33   4435840              20250328367          27862                40829143
2/34   0                    0                    0                    0
2/35   0                    0                    0                    0
2/36   0                    0                    0                    0
2/37   0                    0                    0                    0
2/38   142873046231142      2466744599951        101557494782         35971852073
2/39   9390431212339        1855405218376        51067317275          26108587837
2/40   0                    0                    0                    0
2/41   0                    0                    0                    0
2/42   0                    0                    0                    0

PORT     IN                  OUT                 IN                   OUT                  OUTLOSS
NUM    FLOWCTRL             FLOWCTRL             PFC                  PFC                  PACKETS
------------------------------------------------------------------------------------------------------------------
1/1    0                    0                    0                    0                    0
1/2    0                    0                    0                    0                    0
1/3    0                    0                    0                    0                    0
1/4    0                    0                    0                    0                    0
1/5    0                    0                    0                    0                    0
1/6    0                    0                    0                    0                    0
1/7    0                    0                    0                    0                    0
1/8    0                    0                    0                    0                    0
1/9    0                    0                    0                    0                    0
1/10   0                    0                    0                    0                    0
1/11   0                    0                    0                    0                    0
1/12   0                    0                    0                    0                    0
1/13   0                    0                    0                    0                    0
1/14   0                    0                    0                    0                    0
1/15   0                    0                    0                    0                    0
1/16   0                    0                    0                    0                    0
1/17   0                    0                    0                    0                    0
1/18   0                    0                    0                    0                    0
1/19   0                    0                    0                    0                    0
1/20   0                    0                    0                    0                    0
1/21   0                    0                    0                    0                    0
1/22   0                    0                    0                    0                    0
1/23   0                    0                    0                    0                    0
1/24   0                    0                    0                    0                    0
1/25   0                    0                    0                    0                    0
1/26   0                    0                    0                    0                    0
1/27   0                    0                    0                    0                    0
1/28   0                    0                    0                    0                    0
1/29   0                    0                    0                    0                    0
1/30   0                    0                    0                    0                    0
1/31   0                    0                    0                    0                    0
1/32   0                    0                    0                    0                    0
1/33   0                    0                    0                    0                    0
1/34   0                    0                    0                    0                    0
1/35   0                    0                    0                    0                    0
1/36   0                    0                    0                    0                    0
1/37   0                    0                    0                    0                    0
1/38   0                    0                    0                    0                    0
1/39   0                    0                    0                    0                    0
1/40   0                    0                    0                    0                    0
1/41   0                    0                    0                    0                    0
1/42   0                    0                    0                    0                    0
2/1    0                    0                    0                    0                    0
2/2    0                    0                    0                    0                    0
2/3    0                    0                    0                    0                    0
2/4    0                    0                    0                    0                    0
2/5    0                    0                    0                    0                    0
2/6    0                    0                    0                    0                    0
2/7    0                    0                    0                    0                    0
2/8    0                    0                    0                    0                    0
2/9    0                    0                    0                    0                    0
2/10   0                    0                    0                    0                    0
2/11   0                    0                    0                    0                    0
2/12   0                    0                    0                    0                    0
2/13   0                    0                    0                    0                    0
2/14   0                    0                    0                    0                    0
2/15   0                    0                    0                    0                    0
2/16   0                    0                    0                    0                    0
2/17   0                    0                    0                    0                    0
2/18   0                    0                    0                    0                    0
2/19   0                    0                    0                    0                    0
2/20   0                    0                    0                    0                    0
2/21   0                    0                    0                    0                    0
2/22   0                    0                    0                    0                    0
2/23   0                    0                    0                    0                    0
2/24   0                    0                    0                    0                    0
2/25   0                    0                    0                    0                    0
2/26   0                    0                    0                    0                    0
2/27   0                    0                    0                    0                    0
2/28   0                    0                    0                    0                    0
2/29   0                    0                    0                    0                    0
2/30   0                    0                    0                    0                    0
2/31   0                    0                    0                    0                    0
2/32   0                    0                    0                    0                    0
2/33   0                    0                    0                    0                    0
2/34   0                    0                    0                    0                    0
2/35   0                    0                    0                    0                    0
2/36   0                    0                    0                    0                    0
2/37   0                    0                    0                    0                    0
2/38   0                    0                    0                    0                    0
2/39   0                    0                    0                    0                    0
2/40   0                    0                    0                    0                    0
2/41   0                    0                    0                    0                    0
2/42   0                    0                    0                    0                    0
